simulation/qsim/MyPiano.msim.vcd
$comment
	File created using the following command:
		vcd file MyPiano.msim.vcd -direction
$end
$date
	Tue Oct 27 23:00:47 2015
$end
$version
	ModelSim Version 10.1d
$end
$timescale
	1ps
$end
$scope module FreqChange_vlg_vec_tst $end
$var reg 1 ! clk_in $end
$var wire 1 " clk_out $end
$var wire 1 # sampler $end
$scope module i1 $end
$var wire 1 $ gnd $end
$var wire 1 % vcc $end
$var wire 1 & unknown $end
$var tri1 1 ' devclrn $end
$var tri1 1 ( devpor $end
$var tri1 1 ) devoe $end
$var wire 1 * counter[0]~32_combout $end
$var wire 1 + counter[1]~34_combout $end
$var wire 1 , counter[2]~36_combout $end
$var wire 1 - counter[3]~38_combout $end
$var wire 1 . counter[4]~40_combout $end
$var wire 1 / counter[5]~42_combout $end
$var wire 1 0 counter[6]~44_combout $end
$var wire 1 1 counter[7]~46_combout $end
$var wire 1 2 counter[8]~48_combout $end
$var wire 1 3 counter[9]~50_combout $end
$var wire 1 4 counter[10]~52_combout $end
$var wire 1 5 counter[11]~54_combout $end
$var wire 1 6 counter[12]~56_combout $end
$var wire 1 7 counter[13]~58_combout $end
$var wire 1 8 counter[14]~60_combout $end
$var wire 1 9 counter[15]~62_combout $end
$var wire 1 : counter[16]~64_combout $end
$var wire 1 ; counter[17]~66_combout $end
$var wire 1 < counter[18]~68_combout $end
$var wire 1 = counter[19]~70_combout $end
$var wire 1 > counter[20]~72_combout $end
$var wire 1 ? counter[24]~80_combout $end
$var wire 1 @ counter[28]~88_combout $end
$var wire 1 A LessThan0~0_combout $end
$var wire 1 B LessThan0~1_combout $end
$var wire 1 C LessThan0~2_combout $end
$var wire 1 D LessThan0~3_combout $end
$var wire 1 E LessThan0~4_combout $end
$var wire 1 F LessThan0~5_combout $end
$var wire 1 G clk_out~output_o $end
$var wire 1 H clk_in~input_o $end
$var wire 1 I counter[0]~33 $end
$var wire 1 J counter[1]~35 $end
$var wire 1 K counter[2]~37 $end
$var wire 1 L counter[3]~39 $end
$var wire 1 M counter[4]~41 $end
$var wire 1 N counter[5]~43 $end
$var wire 1 O counter[6]~45 $end
$var wire 1 P counter[7]~47 $end
$var wire 1 Q counter[8]~49 $end
$var wire 1 R counter[9]~51 $end
$var wire 1 S counter[10]~53 $end
$var wire 1 T counter[11]~55 $end
$var wire 1 U counter[12]~57 $end
$var wire 1 V counter[13]~59 $end
$var wire 1 W counter[14]~61 $end
$var wire 1 X counter[15]~63 $end
$var wire 1 Y counter[16]~65 $end
$var wire 1 Z counter[17]~67 $end
$var wire 1 [ counter[18]~69 $end
$var wire 1 \ counter[19]~71 $end
$var wire 1 ] counter[20]~73 $end
$var wire 1 ^ counter[21]~74_combout $end
$var wire 1 _ LessThan0~6_combout $end
$var wire 1 ` counter[21]~75 $end
$var wire 1 a counter[22]~76_combout $end
$var wire 1 b counter[22]~77 $end
$var wire 1 c counter[23]~78_combout $end
$var wire 1 d LessThan0~7_combout $end
$var wire 1 e counter[23]~79 $end
$var wire 1 f counter[24]~81 $end
$var wire 1 g counter[25]~82_combout $end
$var wire 1 h counter[25]~83 $end
$var wire 1 i counter[26]~84_combout $end
$var wire 1 j counter[26]~85 $end
$var wire 1 k counter[27]~86_combout $end
$var wire 1 l LessThan0~8_combout $end
$var wire 1 m counter[27]~87 $end
$var wire 1 n counter[28]~89 $end
$var wire 1 o counter[29]~90_combout $end
$var wire 1 p counter[29]~91 $end
$var wire 1 q counter[30]~92_combout $end
$var wire 1 r counter[30]~93 $end
$var wire 1 s counter[31]~94_combout $end
$var wire 1 t LessThan0~9_combout $end
$var wire 1 u LessThan0~10_combout $end
$var wire 1 v clk~q $end
$var wire 1 w counter [31] $end
$var wire 1 x counter [30] $end
$var wire 1 y counter [29] $end
$var wire 1 z counter [28] $end
$var wire 1 { counter [27] $end
$var wire 1 | counter [26] $end
$var wire 1 } counter [25] $end
$var wire 1 ~ counter [24] $end
$var wire 1 !! counter [23] $end
$var wire 1 "! counter [22] $end
$var wire 1 #! counter [21] $end
$var wire 1 $! counter [20] $end
$var wire 1 %! counter [19] $end
$var wire 1 &! counter [18] $end
$var wire 1 '! counter [17] $end
$var wire 1 (! counter [16] $end
$var wire 1 )! counter [15] $end
$var wire 1 *! counter [14] $end
$var wire 1 +! counter [13] $end
$var wire 1 ,! counter [12] $end
$var wire 1 -! counter [11] $end
$var wire 1 .! counter [10] $end
$var wire 1 /! counter [9] $end
$var wire 1 0! counter [8] $end
$var wire 1 1! counter [7] $end
$var wire 1 2! counter [6] $end
$var wire 1 3! counter [5] $end
$var wire 1 4! counter [4] $end
$var wire 1 5! counter [3] $end
$var wire 1 6! counter [2] $end
$var wire 1 7! counter [1] $end
$var wire 1 8! counter [0] $end
$upscope $end
$upscope $end
$enddefinitions $end
#0
$dumpvars
0!
0"
x#
0$
1%
x&
1'
1(
1)
1*
0+
0,
0-
0.
0/
00
01
02
03
04
05
06
07
08
09
0:
0;
0<
0=
0>
0?
0@
0A
0B
0C
0D
0E
0F
0G
0H
0I
1J
0K
1L
0M
1N
0O
1P
0Q
1R
0S
1T
0U
1V
0W
1X
0Y
1Z
0[
1\
0]
0^
0_
1`
0a
0b
0c
0d
1e
0f
0g
1h
0i
0j
0k
0l
1m
0n
0o
1p
0q
0r
0s
0t
0u
0v
08!
07!
06!
05!
04!
03!
02!
01!
00!
0/!
0.!
0-!
0,!
0+!
0*!
0)!
0(!
0'!
0&!
0%!
0$!
0#!
0"!
0!!
0~
0}
0|
0{
0z
0y
0x
0w
$end
#5000
1!
1H
0#
18!
1A
1I
0*
1E
1+
1u
#10000
0!
0H
1#
#15000
1!
1H
0#
08!
1v
0A
0I
1*
1G
1"
0E
0+
0u
#20000
0!
0H
1#
#25000
1!
1H
0#
18!
0v
1A
1I
0*
0G
0"
1E
1+
1u
#30000
0!
0H
1#
#35000
1!
1H
0#
08!
1v
0A
0I
1*
1G
1"
0E
0+
0u
#40000
0!
0H
1#
#45000
1!
1H
0#
18!
0v
1A
1I
0*
0G
0"
1E
1+
1u
#50000
0!
0H
1#
#55000
1!
1H
0#
08!
1v
0A
0I
1*
1G
1"
0E
0+
0u
#60000
0!
0H
1#
#65000
1!
1H
0#
18!
0v
1A
1I
0*
0G
0"
1E
1+
1u
#70000
0!
0H
1#
#75000
1!
1H
0#
08!
1v
0A
0I
1*
1G
1"
0E
0+
0u
#80000
0!
0H
1#
#85000
1!
1H
0#
18!
0v
1A
1I
0*
0G
0"
1E
1+
1u
#90000
0!
0H
1#
#95000
1!
1H
0#
08!
1v
0A
0I
1*
1G
1"
0E
0+
0u
#100000
0!
0H
1#
#105000
1!
1H
0#
18!
0v
1A
1I
0*
0G
0"
1E
1+
1u
#110000
0!
0H
1#
#115000
1!
1H
0#
08!
1v
0A
0I
1*
1G
1"
0E
0+
0u
#120000
0!
0H
1#
#125000
1!
1H
0#
18!
0v
1A
1I
0*
0G
0"
1E
1+
1u
#130000
0!
0H
1#
#135000
1!
1H
0#
08!
1v
0A
0I
1*
1G
1"
0E
0+
0u
#140000
0!
0H
1#
#145000
1!
1H
0#
18!
0v
1A
1I
0*
0G
0"
1E
1+
1u
#150000
0!
0H
1#
#155000
1!
1H
0#
08!
1v
0A
0I
1*
1G
1"
0E
0+
0u
#160000
0!
0H
1#
#165000
1!
1H
0#
18!
0v
1A
1I
0*
0G
0"
1E
1+
1u
#170000
0!
0H
1#
#175000
1!
1H
0#
08!
1v
0A
0I
1*
1G
1"
0E
0+
0u
#180000
0!
0H
1#
#185000
1!
1H
0#
18!
0v
1A
1I
0*
0G
0"
1E
1+
1u
#190000
0!
0H
1#
#195000
1!
1H
0#
08!
1v
0A
0I
1*
1G
1"
0E
0+
0u
#200000
0!
0H
1#
#205000
1!
1H
0#
18!
0v
1A
1I
0*
0G
0"
1E
1+
1u
#210000
0!
0H
1#
#215000
1!
1H
0#
08!
1v
0A
0I
1*
1G
1"
0E
0+
0u
#220000
0!
0H
1#
#225000
1!
1H
0#
18!
0v
1A
1I
0*
0G
0"
1E
1+
1u
#230000
0!
0H
1#
#235000
1!
1H
0#
08!
1v
0A
0I
1*
1G
1"
0E
0+
0u
#240000
0!
0H
1#
#245000
1!
1H
0#
18!
0v
1A
1I
0*
0G
0"
1E
1+
1u
#250000
0!
0H
1#
#255000
1!
1H
0#
08!
1v
0A
0I
1*
1G
1"
0E
0+
0u
#260000
0!
0H
1#
#265000
1!
1H
0#
18!
0v
1A
1I
0*
0G
0"
1E
1+
1u
#270000
0!
0H
1#
#275000
1!
1H
0#
08!
1v
0A
0I
1*
1G
1"
0E
0+
0u
#280000
0!
0H
1#
#285000
1!
1H
0#
18!
0v
1A
1I
0*
0G
0"
1E
1+
1u
#290000
0!
0H
1#
#295000
1!
1H
0#
08!
1v
0A
0I
1*
1G
1"
0E
0+
0u
#300000
0!
0H
1#
#305000
1!
1H
0#
18!
0v
1A
1I
0*
0G
0"
1E
1+
1u
#310000
0!
0H
1#
#315000
1!
1H
0#
08!
1v
0A
0I
1*
1G
1"
0E
0+
0u
#320000
0!
0H
1#
#325000
1!
1H
0#
18!
0v
1A
1I
0*
0G
0"
1E
1+
1u
#330000
0!
0H
1#
#335000
1!
1H
0#
08!
1v
0A
0I
1*
1G
1"
0E
0+
0u
#340000
0!
0H
1#
#345000
1!
1H
0#
18!
0v
1A
1I
0*
0G
0"
1E
1+
1u
#350000
0!
0H
1#
#355000
1!
1H
0#
08!
1v
0A
0I
1*
1G
1"
0E
0+
0u
#360000
0!
0H
1#
#365000
1!
1H
0#
18!
0v
1A
1I
0*
0G
0"
1E
1+
1u
#370000
0!
0H
1#
#375000
1!
1H
0#
08!
1v
0A
0I
1*
1G
1"
0E
0+
0u
#380000
0!
0H
1#
#385000
1!
1H
0#
18!
0v
1A
1I
0*
0G
0"
1E
1+
1u
#390000
0!
0H
1#
#395000
1!
1H
0#
08!
1v
0A
0I
1*
1G
1"
0E
0+
0u
#400000
0!
0H
1#
#405000
1!
1H
0#
18!
0v
1A
1I
0*
0G
0"
1E
1+
1u
#410000
0!
0H
1#
#415000
1!
1H
0#
08!
1v
0A
0I
1*
1G
1"
0E
0+
0u
#420000
0!
0H
1#
#425000
1!
1H
0#
18!
0v
1A
1I
0*
0G
0"
1E
1+
1u
#430000
0!
0H
1#
#435000
1!
1H
0#
08!
1v
0A
0I
1*
1G
1"
0E
0+
0u
#440000
0!
0H
1#
#445000
1!
1H
0#
18!
0v
1A
1I
0*
0G
0"
1E
1+
1u
#450000
0!
0H
1#
#455000
1!
1H
0#
08!
1v
0A
0I
1*
1G
1"
0E
0+
0u
#460000
0!
0H
1#
#465000
1!
1H
0#
18!
0v
1A
1I
0*
0G
0"
1E
1+
1u
#470000
0!
0H
1#
#475000
1!
1H
0#
08!
1v
0A
0I
1*
1G
1"
0E
0+
0u
#480000
0!
0H
1#
#485000
1!
1H
0#
18!
0v
1A
1I
0*
0G
0"
1E
1+
1u
#490000
0!
0H
1#
#495000
1!
1H
0#
08!
1v
0A
0I
1*
1G
1"
0E
0+
0u
#500000
0!
0H
1#
#505000
1!
1H
0#
18!
0v
1A
1I
0*
0G
0"
1E
1+
1u
#510000
0!
0H
1#
#515000
1!
1H
0#
08!
1v
0A
0I
1*
1G
1"
0E
0+
0u
#520000
0!
0H
1#
#525000
1!
1H
0#
18!
0v
1A
1I
0*
0G
0"
1E
1+
1u
#530000
0!
0H
1#
#535000
1!
1H
0#
08!
1v
0A
0I
1*
1G
1"
0E
0+
0u
#540000
0!
0H
1#
#545000
1!
1H
0#
18!
0v
1A
1I
0*
0G
0"
1E
1+
1u
#550000
0!
0H
1#
#555000
1!
1H
0#
08!
1v
0A
0I
1*
1G
1"
0E
0+
0u
#560000
0!
0H
1#
#565000
1!
1H
0#
18!
0v
1A
1I
0*
0G
0"
1E
1+
1u
#570000
0!
0H
1#
#575000
1!
1H
0#
08!
1v
0A
0I
1*
1G
1"
0E
0+
0u
#580000
0!
0H
1#
#585000
1!
1H
0#
18!
0v
1A
1I
0*
0G
0"
1E
1+
1u
#590000
0!
0H
1#
#595000
1!
1H
0#
08!
1v
0A
0I
1*
1G
1"
0E
0+
0u
#600000
0!
0H
1#
#605000
1!
1H
0#
18!
0v
1A
1I
0*
0G
0"
1E
1+
1u
#610000
0!
0H
1#
#615000
1!
1H
0#
08!
1v
0A
0I
1*
1G
1"
0E
0+
0u
#620000
0!
0H
1#
#625000
1!
1H
0#
18!
0v
1A
1I
0*
0G
0"
1E
1+
1u
#630000
0!
0H
1#
#635000
1!
1H
0#
08!
1v
0A
0I
1*
1G
1"
0E
0+
0u
#640000
0!
0H
1#
#645000
1!
1H
0#
18!
0v
1A
1I
0*
0G
0"
1E
1+
1u
#650000
0!
0H
1#
#655000
1!
1H
0#
08!
1v
0A
0I
1*
1G
1"
0E
0+
0u
#660000
0!
0H
1#
#665000
1!
1H
0#
18!
0v
1A
1I
0*
0G
0"
1E
1+
1u
#670000
0!
0H
1#
#675000
1!
1H
0#
08!
1v
0A
0I
1*
1G
1"
0E
0+
0u
#680000
0!
0H
1#
#685000
1!
1H
0#
18!
0v
1A
1I
0*
0G
0"
1E
1+
1u
#690000
0!
0H
1#
#695000
1!
1H
0#
08!
1v
0A
0I
1*
1G
1"
0E
0+
0u
#700000
0!
0H
1#
#705000
1!
1H
0#
18!
0v
1A
1I
0*
0G
0"
1E
1+
1u
#710000
0!
0H
1#
#715000
1!
1H
0#
08!
1v
0A
0I
1*
1G
1"
0E
0+
0u
#720000
0!
0H
1#
#725000
1!
1H
0#
18!
0v
1A
1I
0*
0G
0"
1E
1+
1u
#730000
0!
0H
1#
#735000
1!
1H
0#
08!
1v
0A
0I
1*
1G
1"
0E
0+
0u
#740000
0!
0H
1#
#745000
1!
1H
0#
18!
0v
1A
1I
0*
0G
0"
1E
1+
1u
#750000
0!
0H
1#
#755000
1!
1H
0#
08!
1v
0A
0I
1*
1G
1"
0E
0+
0u
#760000
0!
0H
1#
#765000
1!
1H
0#
18!
0v
1A
1I
0*
0G
0"
1E
1+
1u
#770000
0!
0H
1#
#775000
1!
1H
0#
08!
1v
0A
0I
1*
1G
1"
0E
0+
0u
#780000
0!
0H
1#
#785000
1!
1H
0#
18!
0v
1A
1I
0*
0G
0"
1E
1+
1u
#790000
0!
0H
1#
#795000
1!
1H
0#
08!
1v
0A
0I
1*
1G
1"
0E
0+
0u
#800000
0!
0H
1#
#805000
1!
1H
0#
18!
0v
1A
1I
0*
0G
0"
1E
1+
1u
#810000
0!
0H
1#
#815000
1!
1H
0#
08!
1v
0A
0I
1*
1G
1"
0E
0+
0u
#820000
0!
0H
1#
#825000
1!
1H
0#
18!
0v
1A
1I
0*
0G
0"
1E
1+
1u
#830000
0!
0H
1#
#835000
1!
1H
0#
08!
1v
0A
0I
1*
1G
1"
0E
0+
0u
#840000
0!
0H
1#
#845000
1!
1H
0#
18!
0v
1A
1I
0*
0G
0"
1E
1+
1u
#850000
0!
0H
1#
#855000
1!
1H
0#
08!
1v
0A
0I
1*
1G
1"
0E
0+
0u
#860000
0!
0H
1#
#865000
1!
1H
0#
18!
0v
1A
1I
0*
0G
0"
1E
1+
1u
#870000
0!
0H
1#
#875000
1!
1H
0#
08!
1v
0A
0I
1*
1G
1"
0E
0+
0u
#880000
0!
0H
1#
#885000
1!
1H
0#
18!
0v
1A
1I
0*
0G
0"
1E
1+
1u
#890000
0!
0H
1#
#895000
1!
1H
0#
08!
1v
0A
0I
1*
1G
1"
0E
0+
0u
#900000
0!
0H
1#
#905000
1!
1H
0#
18!
0v
1A
1I
0*
0G
0"
1E
1+
1u
#910000
0!
0H
1#
#915000
1!
1H
0#
08!
1v
0A
0I
1*
1G
1"
0E
0+
0u
#920000
0!
0H
1#
#925000
1!
1H
0#
18!
0v
1A
1I
0*
0G
0"
1E
1+
1u
#930000
0!
0H
1#
#935000
1!
1H
0#
08!
1v
0A
0I
1*
1G
1"
0E
0+
0u
#940000
0!
0H
1#
#945000
1!
1H
0#
18!
0v
1A
1I
0*
0G
0"
1E
1+
1u
#950000
0!
0H
1#
#955000
1!
1H
0#
08!
1v
0A
0I
1*
1G
1"
0E
0+
0u
#960000
0!
0H
1#
#965000
1!
1H
0#
18!
0v
1A
1I
0*
0G
0"
1E
1+
1u
#970000
0!
0H
1#
#975000
1!
1H
0#
08!
1v
0A
0I
1*
1G
1"
0E
0+
0u
#980000
0!
0H
1#
#985000
1!
1H
0#
18!
0v
1A
1I
0*
0G
0"
1E
1+
1u
#990000
0!
0H
1#
#995000
1!
1H
0#
08!
1v
0A
0I
1*
1G
1"
0E
0+
0u
